<svg width="100" height="100" version="1.1" viewBox="0 0 10 10" xmlns="http://www.w3.org/2000/svg">
  <path d="M0 0C5 4 6 5 10 10 5 6 4 5 0 0Z"/>
  <path d="M10 0C6 5 5 6 0 10 4 5 5 4 10 0 Z"/>
</svg>
