<svg version="1.1" viewBox="0 0 80 80" xmlns="http://www.w3.org/2000/svg">
 <title>Artboard 24</title>
 <path d="m9 0v4h-5v13h-4v9h4v8h-4v9h4v8h-4v9h9v-9h-4v-8h4v-4h9.6992a34.88 34.88 0 0 0 10.48 18h-17.18v5h-4v9h4v5h13v4h9v-4h6v4h9v-9h-9v4h-6v-4h-9v4h-12v-4h4v-9h-4v-4h17.301c0.34 0.29 0.68 0.58914 1 0.86914l9.5801 6.4707a1.35 1.35 0 0 0 0.75977 0.21094 1.38 1.38 0 0 0 0.76953-0.2207l1.9102-1.3301h12.68v12h5v4h9v-4h5v-12h4v-9h-4v-6h4v-9h-9v9h4v6h-4v9h4v11h-4v-4h-9v4h-4v-12h-12.279l5.8496-4.1699a33.15 33.15 0 0 0 12.43-26.119v-10.342a1 1 0 0 0-0.68945-1l-5.3105-1.6895v-14.68h4v4h9v-4h4v12h-4v9h9v-9h-4v-13h-5v-4h-9v4h-5v15.359l-15.689-5.1289a1 1 0 0 0-0.62109 0l-17.689 5.7695v-16h-5v-4h-9zm-4 5h4v4h9v-4h4v15.34l-2 0.66016h-11v-4h-4v-12zm36 14.779 18 5.8301v8.1211a26.5 26.5 0 0 1-9.8398 20.889l-7.3301 5.2012-8.0801-5.2012c-6.75-5.38-10.75-13.179-10.75-20.889v-8.1211l18-5.8301zm-32 2.2207h9.0801a1 1 0 0 0-0.080078 0.36914v10.342a29.59 29.59 0 0 0 0.49023 5.2891h-9.4902v-4h-4v-8h4v-4zm41.768 7.0488a1 1 0 0 0-0.6875 0.29102l-9.6797 9.6602-5-5a1 1 0 0 0-1.4004 0l-3.3594 3.3594a1 1 0 0 0 0 1.4102l5.7188 5.7207 3.3613 3.3594a1 1 0 0 0 1.4102 0l3.3594-3.3594 10.35-10.371a1 1 0 0 0 0.30078-0.70898 1 1 0 0 0-0.29102-0.71094l-3.3594-3.3594a1 1 0 0 0-0.72266-0.29102z"/>
</svg>
